{
	"page": 1,
	"per_page": 15,
	"photos": [{
		"id": 16837990,
		"width": 4082,
		"height": 6124,
		"url": "https://www.pexels.com/photo/village-carved-in-rock-formations-16837990/",
		"photographer": "TANSU TOPUZOĞLU",
		"photographer_url": "https://www.pexels.com/@tansu-topuzoglu-521333173",
		"photographer_id": 521333173,
		"avg_color": "#909195",
		"src": {
			"original": "https://images.pexels.com/photos/16837990/pexels-photo-16837990.jpeg",
			"large2x": "https://images.pexels.com/photos/16837990/pexels-photo-16837990.jpeg?auto=compress\u0026cs=tinysrgb\u0026dpr=2\u0026h=650\u0026w=940",
			"large": "https://images.pexels.com/photos/16837990/pexels-photo-16837990.jpeg?auto=compress\u0026cs=tinysrgb\u0026h=650\u0026w=940",
			"medium": "https://images.pexels.com/photos/16837990/pexels-photo-16837990.jpeg?auto=compress\u0026cs=tinysrgb\u0026h=350",
			"small": "https://images.pexels.com/photos/16837990/pexels-photo-16837990.jpeg?auto=compress\u0026cs=tinysrgb\u0026h=130",
			"portrait": "https://images.pexels.com/photos/16837990/pexels-photo-16837990.jpeg?auto=compress\u0026cs=tinysrgb\u0026fit=crop\u0026h=1200\u0026w=800",
			"landscape": "https://images.pexels.com/photos/16837990/pexels-photo-16837990.jpeg?auto=compress\u0026cs=tinysrgb\u0026fit=crop\u0026h=627\u0026w=1200",
			"tiny": "https://images.pexels.com/photos/16837990/pexels-photo-16837990.jpeg?auto=compress\u0026cs=tinysrgb\u0026dpr=1\u0026fit=crop\u0026h=200\u0026w=280"
		},
		"liked": false,
		"alt": ""
	}, {
		"id": 14420089,
		"width": 8272,
		"height": 6200,
		"url": "https://www.pexels.com/photo/flags-on-pavement-near-stairs-14420089/",
		"photographer": "Egor Komarov",
		"photographer_url": "https://www.pexels.com/@egorkomarov",
		"photographer_id": 4849252,
		"avg_color": "#352F31",
		"src": {
			"original": "https://images.pexels.com/photos/14420089/pexels-photo-14420089.jpeg",
			"large2x": "https://images.pexels.com/photos/14420089/pexels-photo-14420089.jpeg?auto=compress\u0026cs=tinysrgb\u0026dpr=2\u0026h=650\u0026w=940",
			"large": "https://images.pexels.com/photos/14420089/pexels-photo-14420089.jpeg?auto=compress\u0026cs=tinysrgb\u0026h=650\u0026w=940",
			"medium": "https://images.pexels.com/photos/14420089/pexels-photo-14420089.jpeg?auto=compress\u0026cs=tinysrgb\u0026h=350",
			"small": "https://images.pexels.com/photos/14420089/pexels-photo-14420089.jpeg?auto=compress\u0026cs=tinysrgb\u0026h=130",
			"portrait": "https://images.pexels.com/photos/14420089/pexels-photo-14420089.jpeg?auto=compress\u0026cs=tinysrgb\u0026fit=crop\u0026h=1200\u0026w=800",
			"landscape": "https://images.pexels.com/photos/14420089/pexels-photo-14420089.jpeg?auto=compress\u0026cs=tinysrgb\u0026fit=crop\u0026h=627\u0026w=1200",
			"tiny": "https://images.pexels.com/photos/14420089/pexels-photo-14420089.jpeg?auto=compress\u0026cs=tinysrgb\u0026dpr=1\u0026fit=crop\u0026h=200\u0026w=280"
		},
		"liked": false,
		"alt": "Free stock photo of poznan"
	}, {
		"id": 16963635,
		"width": 3910,
		"height": 5857,
		"url": "https://www.pexels.com/photo/art-architecture-travel-statue-16963635/",
		"photographer": "Gije Cho",
		"photographer_url": "https://www.pexels.com/@gije",
		"photographer_id": 1155759,
		"avg_color": "#627E8A",
		"src": {
			"original": "https://images.pexels.com/photos/16963635/pexels-photo-16963635.jpeg",
			"large2x": "https://images.pexels.com/photos/16963635/pexels-photo-16963635.jpeg?auto=compress\u0026cs=tinysrgb\u0026dpr=2\u0026h=650\u0026w=940",
			"large": "https://images.pexels.com/photos/16963635/pexels-photo-16963635.jpeg?auto=compress\u0026cs=tinysrgb\u0026h=650\u0026w=940",
			"medium": "https://images.pexels.com/photos/16963635/pexels-photo-16963635.jpeg?auto=compress\u0026cs=tinysrgb\u0026h=350",
			"small": "https://images.pexels.com/photos/16963635/pexels-photo-16963635.jpeg?auto=compress\u0026cs=tinysrgb\u0026h=130",
			"portrait": "https://images.pexels.com/photos/16963635/pexels-photo-16963635.jpeg?auto=compress\u0026cs=tinysrgb\u0026fit=crop\u0026h=1200\u0026w=800",
			"landscape": "https://images.pexels.com/photos/16963635/pexels-photo-16963635.jpeg?auto=compress\u0026cs=tinysrgb\u0026fit=crop\u0026h=627\u0026w=1200",
			"tiny": "https://images.pexels.com/photos/16963635/pexels-photo-16963635.jpeg?auto=compress\u0026cs=tinysrgb\u0026dpr=1\u0026fit=crop\u0026h=200\u0026w=280"
		},
		"liked": false,
		"alt": ""
	}, {
		"id": 16958119,
		"width": 1728,
		"height": 2592,
		"url": "https://www.pexels.com/photo/art-building-architecture-travel-16958119/",
		"photographer": "Luiz Woellner Fotografia",
		"photographer_url": "https://www.pexels.com/@luiz-woellner-fotografia-557028708",
		"photographer_id": 557028708,
		"avg_color": "#AEA699",
		"src": {
			"original": "https://images.pexels.com/photos/16958119/pexels-photo-16958119.jpeg",
			"large2x": "https://images.pexels.com/photos/16958119/pexels-photo-16958119.jpeg?auto=compress\u0026cs=tinysrgb\u0026dpr=2\u0026h=650\u0026w=940",
			"large": "https://images.pexels.com/photos/16958119/pexels-photo-16958119.jpeg?auto=compress\u0026cs=tinysrgb\u0026h=650\u0026w=940",
			"medium": "https://images.pexels.com/photos/16958119/pexels-photo-16958119.jpeg?auto=compress\u0026cs=tinysrgb\u0026h=350",
			"small": "https://images.pexels.com/photos/16958119/pexels-photo-16958119.jpeg?auto=compress\u0026cs=tinysrgb\u0026h=130",
			"portrait": "https://images.pexels.com/photos/16958119/pexels-photo-16958119.jpeg?auto=compress\u0026cs=tinysrgb\u0026fit=crop\u0026h=1200\u0026w=800",
			"landscape": "https://images.pexels.com/photos/16958119/pexels-photo-16958119.jpeg?auto=compress\u0026cs=tinysrgb\u0026fit=crop\u0026h=627\u0026w=1200",
			"tiny": "https://images.pexels.com/photos/16958119/pexels-photo-16958119.jpeg?auto=compress\u0026cs=tinysrgb\u0026dpr=1\u0026fit=crop\u0026h=200\u0026w=280"
		},
		"liked": false,
		"alt": ""
	}, {
		"id": 16941392,
		"width": 2550,
		"height": 3825,
		"url": "https://www.pexels.com/photo/light-city-people-woman-16941392/",
		"photographer": "Bruno Silva",
		"photographer_url": "https://www.pexels.com/@onorblog",
		"photographer_id": 292691917,
		"avg_color": "#5D5349",
		"src": {
			"original": "https://images.pexels.com/photos/16941392/pexels-photo-16941392.jpeg",
			"large2x": "https://images.pexels.com/photos/16941392/pexels-photo-16941392.jpeg?auto=compress\u0026cs=tinysrgb\u0026dpr=2\u0026h=650\u0026w=940",
			"large": "https://images.pexels.com/photos/16941392/pexels-photo-16941392.jpeg?auto=compress\u0026cs=tinysrgb\u0026h=650\u0026w=940",
			"medium": "https://images.pexels.com/photos/16941392/pexels-photo-16941392.jpeg?auto=compress\u0026cs=tinysrgb\u0026h=350",
			"small": "https://images.pexels.com/photos/16941392/pexels-photo-16941392.jpeg?auto=compress\u0026cs=tinysrgb\u0026h=130",
			"portrait": "https://images.pexels.com/photos/16941392/pexels-photo-16941392.jpeg?auto=compress\u0026cs=tinysrgb\u0026fit=crop\u0026h=1200\u0026w=800",
			"landscape": "https://images.pexels.com/photos/16941392/pexels-photo-16941392.jpeg?auto=compress\u0026cs=tinysrgb\u0026fit=crop\u0026h=627\u0026w=1200",
			"tiny": "https://images.pexels.com/photos/16941392/pexels-photo-16941392.jpeg?auto=compress\u0026cs=tinysrgb\u0026dpr=1\u0026fit=crop\u0026h=200\u0026w=280"
		},
		"liked": false,
		"alt": "Free stock photo of 35mm, canon a1, daily"
	}, {
		"id": 16952098,
		"width": 4240,
		"height": 2832,
		"url": "https://www.pexels.com/photo/city-road-street-hotel-16952098/",
		"photographer": "Josh Hild",
		"photographer_url": "https://www.pexels.com/@josh-hild-1270765",
		"photographer_id": 1270765,
		"avg_color": "#8B7961",
		"src": {
			"original": "https://images.pexels.com/photos/16952098/pexels-photo-16952098.jpeg",
			"large2x": "https://images.pexels.com/photos/16952098/pexels-photo-16952098.jpeg?auto=compress\u0026cs=tinysrgb\u0026dpr=2\u0026h=650\u0026w=940",
			"large": "https://images.pexels.com/photos/16952098/pexels-photo-16952098.jpeg?auto=compress\u0026cs=tinysrgb\u0026h=650\u0026w=940",
			"medium": "https://images.pexels.com/photos/16952098/pexels-photo-16952098.jpeg?auto=compress\u0026cs=tinysrgb\u0026h=350",
			"small": "https://images.pexels.com/photos/16952098/pexels-photo-16952098.jpeg?auto=compress\u0026cs=tinysrgb\u0026h=130",
			"portrait": "https://images.pexels.com/photos/16952098/pexels-photo-16952098.jpeg?auto=compress\u0026cs=tinysrgb\u0026fit=crop\u0026h=1200\u0026w=800",
			"landscape": "https://images.pexels.com/photos/16952098/pexels-photo-16952098.jpeg?auto=compress\u0026cs=tinysrgb\u0026fit=crop\u0026h=627\u0026w=1200",
			"tiny": "https://images.pexels.com/photos/16952098/pexels-photo-16952098.jpeg?auto=compress\u0026cs=tinysrgb\u0026dpr=1\u0026fit=crop\u0026h=200\u0026w=280"
		},
		"liked": false,
		"alt": ""
	}, {
		"id": 16821075,
		"width": 3895,
		"height": 5854,
		"url": "https://www.pexels.com/photo/clouds-over-sea-shore-at-sunset-16821075/",
		"photographer": "Luke Miller",
		"photographer_url": "https://www.pexels.com/@lukemillerphotograph",
		"photographer_id": 2498658,
		"avg_color": "#9C7765",
		"src": {
			"original": "https://images.pexels.com/photos/16821075/pexels-photo-16821075.jpeg",
			"large2x": "https://images.pexels.com/photos/16821075/pexels-photo-16821075.jpeg?auto=compress\u0026cs=tinysrgb\u0026dpr=2\u0026h=650\u0026w=940",
			"large": "https://images.pexels.com/photos/16821075/pexels-photo-16821075.jpeg?auto=compress\u0026cs=tinysrgb\u0026h=650\u0026w=940",
			"medium": "https://images.pexels.com/photos/16821075/pexels-photo-16821075.jpeg?auto=compress\u0026cs=tinysrgb\u0026h=350",
			"small": "https://images.pexels.com/photos/16821075/pexels-photo-16821075.jpeg?auto=compress\u0026cs=tinysrgb\u0026h=130",
			"portrait": "https://images.pexels.com/photos/16821075/pexels-photo-16821075.jpeg?auto=compress\u0026cs=tinysrgb\u0026fit=crop\u0026h=1200\u0026w=800",
			"landscape": "https://images.pexels.com/photos/16821075/pexels-photo-16821075.jpeg?auto=compress\u0026cs=tinysrgb\u0026fit=crop\u0026h=627\u0026w=1200",
			"tiny": "https://images.pexels.com/photos/16821075/pexels-photo-16821075.jpeg?auto=compress\u0026cs=tinysrgb\u0026dpr=1\u0026fit=crop\u0026h=200\u0026w=280"
		},
		"liked": false,
		"alt": ""
	}, {
		"id": 16821086,
		"width": 4024,
		"height": 6048,
		"url": "https://www.pexels.com/photo/man-posing-with-lantern-at-night-16821086/",
		"photographer": "Luke Miller",
		"photographer_url": "https://www.pexels.com/@lukemillerphotograph",
		"photographer_id": 2498658,
		"avg_color": "#242D32",
		"src": {
			"original": "https://images.pexels.com/photos/16821086/pexels-photo-16821086.jpeg",
			"large2x": "https://images.pexels.com/photos/16821086/pexels-photo-16821086.jpeg?auto=compress\u0026cs=tinysrgb\u0026dpr=2\u0026h=650\u0026w=940",
			"large": "https://images.pexels.com/photos/16821086/pexels-photo-16821086.jpeg?auto=compress\u0026cs=tinysrgb\u0026h=650\u0026w=940",
			"medium": "https://images.pexels.com/photos/16821086/pexels-photo-16821086.jpeg?auto=compress\u0026cs=tinysrgb\u0026h=350",
			"small": "https://images.pexels.com/photos/16821086/pexels-photo-16821086.jpeg?auto=compress\u0026cs=tinysrgb\u0026h=130",
			"portrait": "https://images.pexels.com/photos/16821086/pexels-photo-16821086.jpeg?auto=compress\u0026cs=tinysrgb\u0026fit=crop\u0026h=1200\u0026w=800",
			"landscape": "https://images.pexels.com/photos/16821086/pexels-photo-16821086.jpeg?auto=compress\u0026cs=tinysrgb\u0026fit=crop\u0026h=627\u0026w=1200",
			"tiny": "https://images.pexels.com/photos/16821086/pexels-photo-16821086.jpeg?auto=compress\u0026cs=tinysrgb\u0026dpr=1\u0026fit=crop\u0026h=200\u0026w=280"
		},
		"liked": false,
		"alt": ""
	}, {
		"id": 16938786,
		"width": 5158,
		"height": 6942,
		"url": "https://www.pexels.com/photo/dance-in-the-air-16938786/",
		"photographer": "shayan Rostami",
		"photographer_url": "https://www.pexels.com/@shayan-rostami-159053664",
		"photographer_id": 159053664,
		"avg_color": "#C4CECD",
		"src": {
			"original": "https://images.pexels.com/photos/16938786/pexels-photo-16938786.jpeg",
			"large2x": "https://images.pexels.com/photos/16938786/pexels-photo-16938786.jpeg?auto=compress\u0026cs=tinysrgb\u0026dpr=2\u0026h=650\u0026w=940",
			"large": "https://images.pexels.com/photos/16938786/pexels-photo-16938786.jpeg?auto=compress\u0026cs=tinysrgb\u0026h=650\u0026w=940",
			"medium": "https://images.pexels.com/photos/16938786/pexels-photo-16938786.jpeg?auto=compress\u0026cs=tinysrgb\u0026h=350",
			"small": "https://images.pexels.com/photos/16938786/pexels-photo-16938786.jpeg?auto=compress\u0026cs=tinysrgb\u0026h=130",
			"portrait": "https://images.pexels.com/photos/16938786/pexels-photo-16938786.jpeg?auto=compress\u0026cs=tinysrgb\u0026fit=crop\u0026h=1200\u0026w=800",
			"landscape": "https://images.pexels.com/photos/16938786/pexels-photo-16938786.jpeg?auto=compress\u0026cs=tinysrgb\u0026fit=crop\u0026h=627\u0026w=1200",
			"tiny": "https://images.pexels.com/photos/16938786/pexels-photo-16938786.jpeg?auto=compress\u0026cs=tinysrgb\u0026dpr=1\u0026fit=crop\u0026h=200\u0026w=280"
		},
		"liked": false,
		"alt": ""
	}, {
		"id": 16933700,
		"width": 2160,
		"height": 3840,
		"url": "https://www.pexels.com/photo/city-fashion-man-sunglasses-16933700/",
		"photographer": "Aykut Bingül",
		"photographer_url": "https://www.pexels.com/@aykutbingul",
		"photographer_id": 161193354,
		"avg_color": "#4F453C",
		"src": {
			"original": "https://images.pexels.com/photos/16933700/pexels-photo-16933700.jpeg",
			"large2x": "https://images.pexels.com/photos/16933700/pexels-photo-16933700.jpeg?auto=compress\u0026cs=tinysrgb\u0026dpr=2\u0026h=650\u0026w=940",
			"large": "https://images.pexels.com/photos/16933700/pexels-photo-16933700.jpeg?auto=compress\u0026cs=tinysrgb\u0026h=650\u0026w=940",
			"medium": "https://images.pexels.com/photos/16933700/pexels-photo-16933700.jpeg?auto=compress\u0026cs=tinysrgb\u0026h=350",
			"small": "https://images.pexels.com/photos/16933700/pexels-photo-16933700.jpeg?auto=compress\u0026cs=tinysrgb\u0026h=130",
			"portrait": "https://images.pexels.com/photos/16933700/pexels-photo-16933700.jpeg?auto=compress\u0026cs=tinysrgb\u0026fit=crop\u0026h=1200\u0026w=800",
			"landscape": "https://images.pexels.com/photos/16933700/pexels-photo-16933700.jpeg?auto=compress\u0026cs=tinysrgb\u0026fit=crop\u0026h=627\u0026w=1200",
			"tiny": "https://images.pexels.com/photos/16933700/pexels-photo-16933700.jpeg?auto=compress\u0026cs=tinysrgb\u0026dpr=1\u0026fit=crop\u0026h=200\u0026w=280"
		},
		"liked": false,
		"alt": ""
	}, {
		"id": 16803741,
		"width": 3648,
		"height": 5472,
		"url": "https://www.pexels.com/photo/people-walking-on-street-in-town-16803741/",
		"photographer": "Yakup  Polat",
		"photographer_url": "https://www.pexels.com/@yakup-polat-420882786",
		"photographer_id": 420882786,
		"avg_color": "#696258",
		"src": {
			"original": "https://images.pexels.com/photos/16803741/pexels-photo-16803741.jpeg",
			"large2x": "https://images.pexels.com/photos/16803741/pexels-photo-16803741.jpeg?auto=compress\u0026cs=tinysrgb\u0026dpr=2\u0026h=650\u0026w=940",
			"large": "https://images.pexels.com/photos/16803741/pexels-photo-16803741.jpeg?auto=compress\u0026cs=tinysrgb\u0026h=650\u0026w=940",
			"medium": "https://images.pexels.com/photos/16803741/pexels-photo-16803741.jpeg?auto=compress\u0026cs=tinysrgb\u0026h=350",
			"small": "https://images.pexels.com/photos/16803741/pexels-photo-16803741.jpeg?auto=compress\u0026cs=tinysrgb\u0026h=130",
			"portrait": "https://images.pexels.com/photos/16803741/pexels-photo-16803741.jpeg?auto=compress\u0026cs=tinysrgb\u0026fit=crop\u0026h=1200\u0026w=800",
			"landscape": "https://images.pexels.com/photos/16803741/pexels-photo-16803741.jpeg?auto=compress\u0026cs=tinysrgb\u0026fit=crop\u0026h=627\u0026w=1200",
			"tiny": "https://images.pexels.com/photos/16803741/pexels-photo-16803741.jpeg?auto=compress\u0026cs=tinysrgb\u0026dpr=1\u0026fit=crop\u0026h=200\u0026w=280"
		},
		"liked": false,
		"alt": ""
	}, {
		"id": 16791418,
		"width": 4831,
		"height": 7238,
		"url": "https://www.pexels.com/photo/photo-of-a-man-sitting-barefoot-16791418/",
		"photographer": "Josue Velasquez",
		"photographer_url": "https://www.pexels.com/@josue-velasquez-282193995",
		"photographer_id": 282193995,
		"avg_color": "#5D473C",
		"src": {
			"original": "https://images.pexels.com/photos/16791418/pexels-photo-16791418.jpeg",
			"large2x": "https://images.pexels.com/photos/16791418/pexels-photo-16791418.jpeg?auto=compress\u0026cs=tinysrgb\u0026dpr=2\u0026h=650\u0026w=940",
			"large": "https://images.pexels.com/photos/16791418/pexels-photo-16791418.jpeg?auto=compress\u0026cs=tinysrgb\u0026h=650\u0026w=940",
			"medium": "https://images.pexels.com/photos/16791418/pexels-photo-16791418.jpeg?auto=compress\u0026cs=tinysrgb\u0026h=350",
			"small": "https://images.pexels.com/photos/16791418/pexels-photo-16791418.jpeg?auto=compress\u0026cs=tinysrgb\u0026h=130",
			"portrait": "https://images.pexels.com/photos/16791418/pexels-photo-16791418.jpeg?auto=compress\u0026cs=tinysrgb\u0026fit=crop\u0026h=1200\u0026w=800",
			"landscape": "https://images.pexels.com/photos/16791418/pexels-photo-16791418.jpeg?auto=compress\u0026cs=tinysrgb\u0026fit=crop\u0026h=627\u0026w=1200",
			"tiny": "https://images.pexels.com/photos/16791418/pexels-photo-16791418.jpeg?auto=compress\u0026cs=tinysrgb\u0026dpr=1\u0026fit=crop\u0026h=200\u0026w=280"
		},
		"liked": false,
		"alt": ""
	}, {
		"id": 16791655,
		"width": 4160,
		"height": 6240,
		"url": "https://www.pexels.com/photo/portrait-of-a-woman-wearing-a-black-coat-16791655/",
		"photographer": "Ozan Çulha",
		"photographer_url": "https://www.pexels.com/@ozanculha",
		"photographer_id": 1512687,
		"avg_color": "#6A655F",
		"src": {
			"original": "https://images.pexels.com/photos/16791655/pexels-photo-16791655.jpeg",
			"large2x": "https://images.pexels.com/photos/16791655/pexels-photo-16791655.jpeg?auto=compress\u0026cs=tinysrgb\u0026dpr=2\u0026h=650\u0026w=940",
			"large": "https://images.pexels.com/photos/16791655/pexels-photo-16791655.jpeg?auto=compress\u0026cs=tinysrgb\u0026h=650\u0026w=940",
			"medium": "https://images.pexels.com/photos/16791655/pexels-photo-16791655.jpeg?auto=compress\u0026cs=tinysrgb\u0026h=350",
			"small": "https://images.pexels.com/photos/16791655/pexels-photo-16791655.jpeg?auto=compress\u0026cs=tinysrgb\u0026h=130",
			"portrait": "https://images.pexels.com/photos/16791655/pexels-photo-16791655.jpeg?auto=compress\u0026cs=tinysrgb\u0026fit=crop\u0026h=1200\u0026w=800",
			"landscape": "https://images.pexels.com/photos/16791655/pexels-photo-16791655.jpeg?auto=compress\u0026cs=tinysrgb\u0026fit=crop\u0026h=627\u0026w=1200",
			"tiny": "https://images.pexels.com/photos/16791655/pexels-photo-16791655.jpeg?auto=compress\u0026cs=tinysrgb\u0026dpr=1\u0026fit=crop\u0026h=200\u0026w=280"
		},
		"liked": false,
		"alt": ""
	}, {
		"id": 16790833,
		"width": 2832,
		"height": 4240,
		"url": "https://www.pexels.com/photo/binoculars-and-decorations-on-a-table-16790833/",
		"photographer": "Josh Hild",
		"photographer_url": "https://www.pexels.com/@josh-hild-1270765",
		"photographer_id": 1270765,
		"avg_color": "#9F9071",
		"src": {
			"original": "https://images.pexels.com/photos/16790833/pexels-photo-16790833.jpeg",
			"large2x": "https://images.pexels.com/photos/16790833/pexels-photo-16790833.jpeg?auto=compress\u0026cs=tinysrgb\u0026dpr=2\u0026h=650\u0026w=940",
			"large": "https://images.pexels.com/photos/16790833/pexels-photo-16790833.jpeg?auto=compress\u0026cs=tinysrgb\u0026h=650\u0026w=940",
			"medium": "https://images.pexels.com/photos/16790833/pexels-photo-16790833.jpeg?auto=compress\u0026cs=tinysrgb\u0026h=350",
			"small": "https://images.pexels.com/photos/16790833/pexels-photo-16790833.jpeg?auto=compress\u0026cs=tinysrgb\u0026h=130",
			"portrait": "https://images.pexels.com/photos/16790833/pexels-photo-16790833.jpeg?auto=compress\u0026cs=tinysrgb\u0026fit=crop\u0026h=1200\u0026w=800",
			"landscape": "https://images.pexels.com/photos/16790833/pexels-photo-16790833.jpeg?auto=compress\u0026cs=tinysrgb\u0026fit=crop\u0026h=627\u0026w=1200",
			"tiny": "https://images.pexels.com/photos/16790833/pexels-photo-16790833.jpeg?auto=compress\u0026cs=tinysrgb\u0026dpr=1\u0026fit=crop\u0026h=200\u0026w=280"
		},
		"liked": false,
		"alt": ""
	}, {
		"id": 16790839,
		"width": 3456,
		"height": 5184,
		"url": "https://www.pexels.com/photo/galata-tower-in-istanbul-16790839/",
		"photographer": "hicret",
		"photographer_url": "https://www.pexels.com/@hicret-159589735",
		"photographer_id": 159589735,
		"avg_color": "#85807A",
		"src": {
			"original": "https://images.pexels.com/photos/16790839/pexels-photo-16790839.jpeg",
			"large2x": "https://images.pexels.com/photos/16790839/pexels-photo-16790839.jpeg?auto=compress\u0026cs=tinysrgb\u0026dpr=2\u0026h=650\u0026w=940",
			"large": "https://images.pexels.com/photos/16790839/pexels-photo-16790839.jpeg?auto=compress\u0026cs=tinysrgb\u0026h=650\u0026w=940",
			"medium": "https://images.pexels.com/photos/16790839/pexels-photo-16790839.jpeg?auto=compress\u0026cs=tinysrgb\u0026h=350",
			"small": "https://images.pexels.com/photos/16790839/pexels-photo-16790839.jpeg?auto=compress\u0026cs=tinysrgb\u0026h=130",
			"portrait": "https://images.pexels.com/photos/16790839/pexels-photo-16790839.jpeg?auto=compress\u0026cs=tinysrgb\u0026fit=crop\u0026h=1200\u0026w=800",
			"landscape": "https://images.pexels.com/photos/16790839/pexels-photo-16790839.jpeg?auto=compress\u0026cs=tinysrgb\u0026fit=crop\u0026h=627\u0026w=1200",
			"tiny": "https://images.pexels.com/photos/16790839/pexels-photo-16790839.jpeg?auto=compress\u0026cs=tinysrgb\u0026dpr=1\u0026fit=crop\u0026h=200\u0026w=280"
		},
		"liked": false,
		"alt": ""
	}],
	"total_results": 8000,
	"next_page": "https://api.pexels.com/v1/curated/?page=2\u0026per_page=15"
}